<?xml version="1.0" standalone="no"?>
<!DOCTYPE svg PUBLIC "-//W3C//DTD SVG 1.1//EN" "http://www.w3.org/Graphics/SVG/1.1/DTD/svg11.dtd">
<svg xmlns="http://www.w3.org/2000/svg">
<metadata>Copyright (C) 2023 by original authors @ fontello.com</metadata>
<defs>
<font id="rapider-font" horiz-adv-x="1000" >
<font-face font-family="rapider-font" font-weight="400" font-stretch="normal" units-per-em="1000" ascent="850" descent="-150" />
<missing-glyph horiz-adv-x="1000" />
<glyph glyph-name="menu-close" unicode="&#xe800;" d="M654 682l-297-296 297-297q10-10 10-25t-10-25l-93-93q-11-10-25-10t-25 10l-414 415q-11 10-11 25t11 25l414 414q10 11 25 11t25-11l93-93q10-10 10-25t-10-25z" horiz-adv-x="714.3" />

<glyph glyph-name="menu" unicode="&#xe801;" d="M834 90q42 0 73-30t31-75q0-42-30-73t-74-31l-730 0q-44 0-74 31t-30 73q0 44 31 75t73 30l730 0z m0 364q44 0 74-31t30-73-30-73-74-30l-730 0q-44 0-74 30t-30 73 30 73 74 31l730 0z m0 365q44 0 74-31t30-73q0-43-31-74t-73-31l-730 0q-43 0-73 31t-31 74q0 43 30 73t74 31l730 0z" horiz-adv-x="938" />

<glyph glyph-name="menu-open" unicode="&#xe802;" d="M618 361l-414-415q-11-10-25-10t-25 10l-93 93q-11 11-11 25t11 25l296 297-296 296q-11 11-11 25t11 25l93 93q10 11 25 11t25-11l414-414q10-11 10-25t-10-25z" horiz-adv-x="714.3" />

<glyph glyph-name="walk" unicode="&#xe803;" d="M0-132l0 289q0 103 60 177t157 75l330 0q101-2 158-76t57-176l0-289q0-18-18-18l-105 0q-16 0-16 18l0 252q-6 27-27 24t-22-24l0-252q-2-18-19-18l-352 0q-17 0-17 18l0 252q-4 27-26 24t-23-24l0-252q0-18-18-18l-101 0q-18 0-18 18z m186 783q0 82 59 140t140 59q86-4 142-60t59-139q-2-84-61-143t-140-58q-84 2-142 60t-57 141z" horiz-adv-x="762" />

<glyph glyph-name="target" unicode="&#xe804;" d="M668 279h-61q-14 0-25 10t-11 25v72q0 14 11 25t25 10h61q-18 61-63 106t-105 62v-60q0-15-11-25t-25-11h-71q-15 0-25 11t-11 25v60q-60-17-105-62t-63-106h61q15 0 25-10t11-25v-72q0-14-11-25t-25-10h-61q18-61 63-106t105-62v60q0 15 11 26t25 10h71q15 0 25-10t11-26v-60q60 18 105 62t63 106z m189 107v-72q0-14-10-25t-26-10h-79q-21-90-87-156t-155-86v-80q0-14-11-25t-25-11h-71q-15 0-25 11t-11 25v80q-90 21-155 86t-86 156h-80q-15 0-25 10t-11 25v72q0 14 11 25t25 10h80q20 90 86 156t155 86v80q0 14 11 25t25 11h71q15 0 25-11t11-25v-80q90-21 155-86t87-156h79q15 0 26-10t10-25z" horiz-adv-x="857.1" />

<glyph glyph-name="bike" unicode="&#xe80a;" d="M625 700l-25-50 100-37 0-113-350 0 0 50 50 0 0 25c0 12-13 25-25 25l-125 0c-25 0-25-25-25-25l0-25 75 0 0-50-53-106c-15 3-31 6-47 6-110 0-200-89-200-200s90-200 200-200 200 90 200 200c0 0 50 0 75 0s25 25 25 25c5 74 43 131 92 169 34 26 71 42 108 50l0-52c-86-22-150-99-150-192 0-110 90-200 200-200s200 90 200 200c0 91-62 167-145 191l-55 109 0 125c0 15-12 31-25 36z m-275-250l225 0c-50-25-125-150-125-200l-58 0c-12 49-41 90-83 117z m-150-125c69 0 125-56 125-125s-56-125-125-125-125 56-125 125 56 125 125 125z m550 0c69 0 125-56 125-125s-56-125-125-125-125 56-125 125 56 125 125 125z" horiz-adv-x="950" />

<glyph glyph-name="menu-1" unicode="&#xf008;" d="M68 62q0-30 21-51t51-21h793q30 0 51 21t21 51-21 51-51 21h-793q-29 0-51-21t-21-51z m0 288q0-30 21-51t51-21h793q30 0 51 21t21 51-21 51-51 21h-793q-29 0-51-21t-21-51z m0 288q0-30 21-51t51-21h793q30 0 51 21t21 51-21 51-51 21h-793q-29 0-51-21t-21-51z" horiz-adv-x="1073.2" />

<glyph glyph-name="location" unicode="&#xf031;" d="M0 473q0 70 27 134 25 61 74 111 47 47 110 73 63 27 134 27 72 0 135-27 62-26 110-73 48-49 74-111 27-64 27-134t-27-134q-18-40-36-65l-229-347q-22-35-53-35t-55 35l-228 347q-22 31-36 65-27 64-27 134z m217 0q0-53 37-91 38-38 91-38 54 0 91 38 38 37 38 91 0 53-38 91-37 38-91 38-53 0-91-38-37-38-37-91z" horiz-adv-x="691.4" />

<glyph glyph-name="car" unicode="&#xf1b9;" d="M268 243q0 37-26 63t-63 26-63-26-27-63 27-63 63-26 63 26 26 63z m20 178h567l-50 200q-1 4-8 9t-11 6h-429q-5 0-12-6t-7-9z m766-178q0 37-27 63t-63 26-63-26-26-63 26-63 63-26 63 26 27 63z m89 53v-214q0-8-5-13t-13-5h-54v-71q0-45-31-76t-76-31-76 31-31 76v71h-571v-71q0-45-31-76t-76-31-76 31-32 76v71h-53q-8 0-13 5t-5 13v214q0 52 37 89t88 36h16l58 234q13 53 58 88t100 36h429q54 0 100-36t58-88l58-234h16q52 0 88-36t37-89z" horiz-adv-x="1142.9" />

<glyph glyph-name="bike1" unicode="&#xf206;" d="M425 207h-175q-22 0-32 20t4 37l105 140q-37 17-77 17-74 0-126-52t-53-126 53-126 126-53q64 0 113 41t62 102z m-104 72h104q-10 47-42 82z m268 0l161 214h-268l-55-74q59-57 70-140h92z m625-36q0 74-52 126t-126 52q-34 0-68-13l97-145q9-13 6-27t-15-23q-9-6-20-6-20 0-30 16l-97 145q-52-53-52-125 0-74 53-126t126-53 126 53 52 126z m72 0q0-103-74-177t-176-73-177 73-73 177q0 54 22 102t61 84l-36 54-197-261q-10-15-29-15h-110q-13-91-83-153t-164-61q-103 0-177 73t-73 177 73 177 177 73q64 0 120-31l76 102h-125q-14 0-25 11t-10 25 10 25 25 11h215v-72h243l-48 72h-124q-14 0-25 10t-11 25 11 26 25 10h143q18 0 30-15l149-224q50 25 107 25 103 0 176-73t74-177z" horiz-adv-x="1285.7" />

<glyph glyph-name="truck" unicode="&#xf207;" d="M214 171q0 30-21 51t-50 21-51-21-21-51 21-50 51-21 50 21 21 50z m572 0q0 30-21 51t-51 21-50-21-21-51 21-50 50-21 51 21 21 50z m-26 221l-40 215q-3 13-13 21t-22 8h-513q-12 0-22-8t-13-21l-40-215q-3-16 8-29t27-13h593q17 0 27 13t8 29z m-126 342q0 11-8 19t-19 8h-357q-11 0-19-8t-8-19 8-19 19-8h357q11 0 19 8t8 19z m223-405v-336h-71v-72q0-29-21-50t-51-21-50 21-21 50v72h-429v-72q0-29-21-50t-50-21-51 21-21 50v72h-71v336q0 63 14 125l57 253q6 44 55 77t128 49 175 17 174-17 128-49 55-77l58-253q13-57 13-125z" horiz-adv-x="857.1" />
</font>
</defs>
</svg>
